Women’s E-Commerce Clothing Reviews
…
We can see that the biggest heat is between Knits and General and Dresses and General.

4 - Text Analysis

Our data base includes two columns that are represented as text. It was important to also look into that and create a text analysis.

We did a sentiment analysis to see which words were the most used in the reviews made by the customers.

From the table we can see that most used word is : love (with 8948 occurances). We also checked if the reviews included more positive or more negative sentences.

From the result we can see that it includes more negative words.

## # A tibble: 316 x 2
##    word           n
##    <chr>      <int>
##  1 love        8948
##  2 perfect     3772
##  3 flattering  3517
##  4 beautiful   2960
##  5 pretty      2194
##  6 good        1956
##  7 true        1695
##  8 white       1529
##  9 lovely      1072
## 10 gorgeous    1048
## # ... with 306 more rows

sentiment

n

negative

4782

positive

2006

## # A tibble: 1,770 x 3
##    word        sentiment     n
##    <chr>       <chr>     <int>
##  1 love        positive   8948
##  2 top         positive   7405
##  3 like        positive   7149
##  4 great       positive   6114
##  5 perfect     positive   3772
##  6 flattering  positive   3517
##  7 well        positive   3386
##  8 soft        positive   3343
##  9 comfortable positive   3057
## 10 cute        positive   3041
## # ... with 1,760 more rows
…
