…
# 4 - Text Analysis



```
## # A tibble: 316 x 2
##    word           n
##    <chr>      <int>
##  1 love        8948
##  2 perfect     3772
##  3 flattering  3517
##  4 beautiful   2960
##  5 pretty      2194
##  6 good        1956
##  7 true        1695
##  8 white       1529
##  9 lovely      1072
## 10 gorgeous    1048
## # ... with 306 more rows
```
…
```
## # A tibble: 1,770 x 3
##    word        sentiment     n
##    <chr>       <chr>     <int>
##  1 love        positive   8948
##  2 top         positive   7405
##  3 like        positive   7149
##  4 great       positive   6114
##  5 perfect     positive   3772
##  6 flattering  positive   3517
##  7 well        positive   3386
##  8 soft        positive   3343
##  9 comfortable positive   3057
## 10 cute        positive   3041
## # ... with 1,760 more rows
```
…
